digraph models_diagram {
	graph[overlap=false, splines=true, bgcolor="none"]
	"Apartamento" [shape=Mrecord, label="{Apartamento|id :integer\ltamanho :integer\lcategoria :varchar\lcamas :integer\lbanheiros :integer\lcreated_at :datetime\lupdated_at :datetime\l}"]
	"Empresa" [shape=Mrecord, label="{Empresa|id :integer\lemail :varchar\lencrypted_password :varchar\lreset_password_token :varchar\lreset_password_sent_at :datetime\lremember_created_at :datetime\lcreated_at :datetime\lupdated_at :datetime\l}"]
	"Cliente" [shape=Mrecord, label="{Cliente|id :integer\lemail :varchar\lencrypted_password :varchar\lreset_password_token :varchar\lreset_password_sent_at :datetime\lremember_created_at :datetime\lcreated_at :datetime\lupdated_at :datetime\l}"]
	"Hotel" [shape=Mrecord, label="{Hotel|id :integer\lfoto :varchar\lnome :varchar\lestrelas :integer\lavaliacao :integer\llocal :varchar\lqtd_camas :integer\lqnt_banheiros :integer\lpiscina :varchar\lcafe :varchar\lpreço :integer\lcreated_at :datetime\lupdated_at :datetime\lapartamento_id :integer\l}"]
	"Comment" [shape=Mrecord, label="{Comment|id :integer\lbody :text\lcreated_at :datetime\lupdated_at :datetime\l}"]
	"ApplicationRecord" []
	"Cliente" -> "Commontator::Comment" [label="comments", arrowtail=odot, arrowhead=crow, dir=both color="#1A250C"]
	"Cliente" -> "Commontator::Subscription" [label="subscriptions", arrowtail=odot, arrowhead=crow, dir=both color="#A56406"]
	"Hotel" -> "Commontator::Thread" [label="thread", arrowtail=odot, arrowhead=dot, dir=both color="#691FA9"]
	"Hotel" -> "Comment" [arrowtail=odot, arrowhead=crow, dir=both color="#6E85C1"]
	"Hotel" -> "Apartamento" [arrowtail=odot, arrowhead=crow, dir=both color="#31EACF"]
}
