<?xml version="1.0" encoding="UTF-8" standalone="no"?>
<!DOCTYPE svg PUBLIC "-//W3C//DTD SVG 1.1//EN"
 "http://www.w3.org/Graphics/SVG/1.1/DTD/svg11.dtd">
<!-- Generated by graphviz version 2.40.1 (20161225.0304)
 -->
<!-- Title: models_diagram Pages: 1 -->
<svg width="1146pt" height="438pt"
 viewBox="0.00 0.00 1146.34 438.00" xmlns="http://www.w3.org/2000/svg" xmlns:xlink="http://www.w3.org/1999/xlink">
<g id="graph0" class="graph" transform="scale(1 1) rotate(0) translate(4 434)">
<title>models_diagram</title>
<polygon fill="transparent" stroke="transparent" points="-4,4 -4,-434 1142.3431,-434 1142.3431,4 -4,4"/>
<!-- _diagram_info -->
<g id="node1" class="node">
<title>_diagram_info</title>
<text text-anchor="start" x="8" y="-333.6" font-family="Times,serif" font-size="13.00" fill="#000000">Models diagram</text>
<text text-anchor="start" x="8" y="-319.6" font-family="Times,serif" font-size="13.00" fill="#000000">Date: Dec 06 2018 &#45; 11:39</text>
<text text-anchor="start" x="8" y="-305.6" font-family="Times,serif" font-size="13.00" fill="#000000">Migration version: 20181206030717</text>
<text text-anchor="start" x="8" y="-291.6" font-family="Times,serif" font-size="13.00" fill="#000000">Generated by RailRoady 1.5.3</text>
<text text-anchor="start" x="8" y="-277.6" font-family="Times,serif" font-size="13.00" fill="#000000">http://railroady.prestonlee.com</text>
</g>
<!-- Apartamento -->
<g id="node2" class="node">
<title>Apartamento</title>
<path fill="none" stroke="#000000" d="M102.5,-.5C102.5,-.5 209.5,-.5 209.5,-.5 215.5,-.5 221.5,-6.5 221.5,-12.5 221.5,-12.5 221.5,-124.5 221.5,-124.5 221.5,-130.5 215.5,-136.5 209.5,-136.5 209.5,-136.5 102.5,-136.5 102.5,-136.5 96.5,-136.5 90.5,-130.5 90.5,-124.5 90.5,-124.5 90.5,-12.5 90.5,-12.5 90.5,-6.5 96.5,-.5 102.5,-.5"/>
<text text-anchor="middle" x="156" y="-121.3" font-family="Times,serif" font-size="14.00" fill="#000000">Apartamento</text>
<polyline fill="none" stroke="#000000" points="90.5,-113.5 221.5,-113.5 "/>
<text text-anchor="start" x="98.5" y="-98.3" font-family="Times,serif" font-size="14.00" fill="#000000">id :integer</text>
<text text-anchor="start" x="98.5" y="-83.3" font-family="Times,serif" font-size="14.00" fill="#000000">tamanho :integer</text>
<text text-anchor="start" x="98.5" y="-68.3" font-family="Times,serif" font-size="14.00" fill="#000000">categoria :varchar</text>
<text text-anchor="start" x="98.5" y="-53.3" font-family="Times,serif" font-size="14.00" fill="#000000">camas :integer</text>
<text text-anchor="start" x="98.5" y="-38.3" font-family="Times,serif" font-size="14.00" fill="#000000">banheiros :integer</text>
<text text-anchor="start" x="98.5" y="-23.3" font-family="Times,serif" font-size="14.00" fill="#000000">created_at :datetime</text>
<text text-anchor="start" x="98.5" y="-8.3" font-family="Times,serif" font-size="14.00" fill="#000000">updated_at :datetime</text>
</g>
<!-- Empresa -->
<g id="node3" class="node">
<title>Empresa</title>
<path fill="none" stroke="#000000" d="M459,-233.5C459,-233.5 635,-233.5 635,-233.5 641,-233.5 647,-239.5 647,-245.5 647,-245.5 647,-372.5 647,-372.5 647,-378.5 641,-384.5 635,-384.5 635,-384.5 459,-384.5 459,-384.5 453,-384.5 447,-378.5 447,-372.5 447,-372.5 447,-245.5 447,-245.5 447,-239.5 453,-233.5 459,-233.5"/>
<text text-anchor="middle" x="547" y="-369.3" font-family="Times,serif" font-size="14.00" fill="#000000">Empresa</text>
<polyline fill="none" stroke="#000000" points="447,-361.5 647,-361.5 "/>
<text text-anchor="start" x="455" y="-346.3" font-family="Times,serif" font-size="14.00" fill="#000000">id :integer</text>
<text text-anchor="start" x="455" y="-331.3" font-family="Times,serif" font-size="14.00" fill="#000000">email :varchar</text>
<text text-anchor="start" x="455" y="-316.3" font-family="Times,serif" font-size="14.00" fill="#000000">encrypted_password :varchar</text>
<text text-anchor="start" x="455" y="-301.3" font-family="Times,serif" font-size="14.00" fill="#000000">reset_password_token :varchar</text>
<text text-anchor="start" x="455" y="-286.3" font-family="Times,serif" font-size="14.00" fill="#000000">reset_password_sent_at :datetime</text>
<text text-anchor="start" x="455" y="-271.3" font-family="Times,serif" font-size="14.00" fill="#000000">remember_created_at :datetime</text>
<text text-anchor="start" x="455" y="-256.3" font-family="Times,serif" font-size="14.00" fill="#000000">created_at :datetime</text>
<text text-anchor="start" x="455" y="-241.3" font-family="Times,serif" font-size="14.00" fill="#000000">updated_at :datetime</text>
</g>
<!-- Cliente -->
<g id="node4" class="node">
<title>Cliente</title>
<path fill="none" stroke="#000000" d="M778,-233.5C778,-233.5 954,-233.5 954,-233.5 960,-233.5 966,-239.5 966,-245.5 966,-245.5 966,-372.5 966,-372.5 966,-378.5 960,-384.5 954,-384.5 954,-384.5 778,-384.5 778,-384.5 772,-384.5 766,-378.5 766,-372.5 766,-372.5 766,-245.5 766,-245.5 766,-239.5 772,-233.5 778,-233.5"/>
<text text-anchor="middle" x="866" y="-369.3" font-family="Times,serif" font-size="14.00" fill="#000000">Cliente</text>
<polyline fill="none" stroke="#000000" points="766,-361.5 966,-361.5 "/>
<text text-anchor="start" x="774" y="-346.3" font-family="Times,serif" font-size="14.00" fill="#000000">id :integer</text>
<text text-anchor="start" x="774" y="-331.3" font-family="Times,serif" font-size="14.00" fill="#000000">email :varchar</text>
<text text-anchor="start" x="774" y="-316.3" font-family="Times,serif" font-size="14.00" fill="#000000">encrypted_password :varchar</text>
<text text-anchor="start" x="774" y="-301.3" font-family="Times,serif" font-size="14.00" fill="#000000">reset_password_token :varchar</text>
<text text-anchor="start" x="774" y="-286.3" font-family="Times,serif" font-size="14.00" fill="#000000">reset_password_sent_at :datetime</text>
<text text-anchor="start" x="774" y="-271.3" font-family="Times,serif" font-size="14.00" fill="#000000">remember_created_at :datetime</text>
<text text-anchor="start" x="774" y="-256.3" font-family="Times,serif" font-size="14.00" fill="#000000">created_at :datetime</text>
<text text-anchor="start" x="774" y="-241.3" font-family="Times,serif" font-size="14.00" fill="#000000">updated_at :datetime</text>
</g>
<!-- Commontator::Comment -->
<g id="node8" class="node">
<title>Commontator::Comment</title>
<ellipse fill="none" stroke="#000000" cx="688" cy="-68.5" rx="100.9827" ry="18"/>
<text text-anchor="middle" x="688" y="-64.8" font-family="Times,serif" font-size="14.00" fill="#000000">Commontator::Comment</text>
</g>
<!-- Cliente&#45;&gt;Commontator::Comment -->
<g id="edge1" class="edge">
<title>Cliente&#45;&gt;Commontator::Comment</title>
<path fill="none" stroke="#a882ce" d="M804.9618,-226.5299C770.9717,-180.605 730.9249,-126.4969 707.6059,-94.99"/>
<ellipse fill="none" stroke="#a882ce" cx="807.5444" cy="-230.0192" rx="4" ry="4"/>
<polygon fill="#a882ce" stroke="#a882ce" points="707.4404,-94.7664 705.1084,-84.0513 704.4659,-90.7474 701.4913,-86.7284 701.4913,-86.7284 701.4913,-86.7284 704.4659,-90.7474 697.8742,-89.4055 707.4404,-94.7664 707.4404,-94.7664"/>
<text text-anchor="middle" x="791" y="-158.8" font-family="Times,serif" font-size="14.00" fill="#000000">comments</text>
</g>
<!-- Commontator::Subscription -->
<g id="node9" class="node">
<title>Commontator::Subscription</title>
<ellipse fill="none" stroke="#000000" cx="917" cy="-68.5" rx="109.6807" ry="18"/>
<text text-anchor="middle" x="917" y="-64.8" font-family="Times,serif" font-size="14.00" fill="#000000">Commontator::Subscription</text>
</g>
<!-- Cliente&#45;&gt;Commontator::Subscription -->
<g id="edge2" class="edge">
<title>Cliente&#45;&gt;Commontator::Subscription</title>
<path fill="none" stroke="#f9e311" d="M883.7498,-225.2975C893.2737,-180.386 904.3913,-127.9586 911.0544,-96.5377"/>
<ellipse fill="none" stroke="#f9e311" cx="882.8965" cy="-229.3214" rx="4" ry="4"/>
<polygon fill="#f9e311" stroke="#f9e311" points="911.06,-96.5109 917.5366,-87.6619 912.0973,-91.6196 913.1345,-86.7284 913.1345,-86.7284 913.1345,-86.7284 912.0973,-91.6196 908.7324,-85.7949 911.06,-96.5109 911.06,-96.5109"/>
<text text-anchor="middle" x="933" y="-158.8" font-family="Times,serif" font-size="14.00" fill="#000000">subscriptions</text>
</g>
<!-- Hotel -->
<g id="node5" class="node">
<title>Hotel</title>
<path fill="none" stroke="#000000" d="M244,-188.5C244,-188.5 366,-188.5 366,-188.5 372,-188.5 378,-194.5 378,-200.5 378,-200.5 378,-417.5 378,-417.5 378,-423.5 372,-429.5 366,-429.5 366,-429.5 244,-429.5 244,-429.5 238,-429.5 232,-423.5 232,-417.5 232,-417.5 232,-200.5 232,-200.5 232,-194.5 238,-188.5 244,-188.5"/>
<text text-anchor="middle" x="305" y="-414.3" font-family="Times,serif" font-size="14.00" fill="#000000">Hotel</text>
<polyline fill="none" stroke="#000000" points="232,-406.5 378,-406.5 "/>
<text text-anchor="start" x="240" y="-391.3" font-family="Times,serif" font-size="14.00" fill="#000000">id :integer</text>
<text text-anchor="start" x="240" y="-376.3" font-family="Times,serif" font-size="14.00" fill="#000000">foto :varchar</text>
<text text-anchor="start" x="240" y="-361.3" font-family="Times,serif" font-size="14.00" fill="#000000">nome :varchar</text>
<text text-anchor="start" x="240" y="-346.3" font-family="Times,serif" font-size="14.00" fill="#000000">estrelas :integer</text>
<text text-anchor="start" x="240" y="-331.3" font-family="Times,serif" font-size="14.00" fill="#000000">avaliacao :integer</text>
<text text-anchor="start" x="240" y="-316.3" font-family="Times,serif" font-size="14.00" fill="#000000">local :varchar</text>
<text text-anchor="start" x="240" y="-301.3" font-family="Times,serif" font-size="14.00" fill="#000000">qtd_camas :integer</text>
<text text-anchor="start" x="240" y="-286.3" font-family="Times,serif" font-size="14.00" fill="#000000">qnt_banheiros :integer</text>
<text text-anchor="start" x="240" y="-271.3" font-family="Times,serif" font-size="14.00" fill="#000000">piscina :varchar</text>
<text text-anchor="start" x="240" y="-256.3" font-family="Times,serif" font-size="14.00" fill="#000000">cafe :varchar</text>
<text text-anchor="start" x="240" y="-241.3" font-family="Times,serif" font-size="14.00" fill="#000000">preço :integer</text>
<text text-anchor="start" x="240" y="-226.3" font-family="Times,serif" font-size="14.00" fill="#000000">created_at :datetime</text>
<text text-anchor="start" x="240" y="-211.3" font-family="Times,serif" font-size="14.00" fill="#000000">updated_at :datetime</text>
<text text-anchor="start" x="240" y="-196.3" font-family="Times,serif" font-size="14.00" fill="#000000">apartamento_id :integer</text>
</g>
<!-- Hotel&#45;&gt;Apartamento -->
<g id="edge5" class="edge">
<title>Hotel&#45;&gt;Apartamento</title>
<path fill="none" stroke="#30436d" d="M227.4767,-183.8702C219.3459,-170.7463 211.2632,-157.7001 203.6169,-145.3581"/>
<ellipse fill="none" stroke="#30436d" cx="229.7029" cy="-187.4634" rx="4" ry="4"/>
<polygon fill="#30436d" stroke="#30436d" points="203.3984,-145.0055 201.9572,-134.1347 200.7651,-140.7551 198.1318,-136.5047 198.1318,-136.5047 198.1318,-136.5047 200.7651,-140.7551 194.3065,-138.8747 203.3984,-145.0055 203.3984,-145.0055"/>
</g>
<!-- Comment -->
<g id="node6" class="node">
<title>Comment</title>
<path fill="none" stroke="#000000" d="M251.5,-23C251.5,-23 358.5,-23 358.5,-23 364.5,-23 370.5,-29 370.5,-35 370.5,-35 370.5,-102 370.5,-102 370.5,-108 364.5,-114 358.5,-114 358.5,-114 251.5,-114 251.5,-114 245.5,-114 239.5,-108 239.5,-102 239.5,-102 239.5,-35 239.5,-35 239.5,-29 245.5,-23 251.5,-23"/>
<text text-anchor="middle" x="305" y="-98.8" font-family="Times,serif" font-size="14.00" fill="#000000">Comment</text>
<polyline fill="none" stroke="#000000" points="239.5,-91 370.5,-91 "/>
<text text-anchor="start" x="247.5" y="-75.8" font-family="Times,serif" font-size="14.00" fill="#000000">id :integer</text>
<text text-anchor="start" x="247.5" y="-60.8" font-family="Times,serif" font-size="14.00" fill="#000000">body :text</text>
<text text-anchor="start" x="247.5" y="-45.8" font-family="Times,serif" font-size="14.00" fill="#000000">created_at :datetime</text>
<text text-anchor="start" x="247.5" y="-30.8" font-family="Times,serif" font-size="14.00" fill="#000000">updated_at :datetime</text>
</g>
<!-- Hotel&#45;&gt;Comment -->
<g id="edge4" class="edge">
<title>Hotel&#45;&gt;Comment</title>
<path fill="none" stroke="#302522" d="M305,-180.3334C305,-160.669 305,-141.3062 305,-124.3624"/>
<ellipse fill="none" stroke="#302522" cx="305" cy="-184.3977" rx="4" ry="4"/>
<polygon fill="#302522" stroke="#302522" points="305.0001,-124.1439 309.5,-114.1439 305,-119.1439 305,-114.1439 305,-114.1439 305,-114.1439 305,-119.1439 300.5,-114.144 305.0001,-124.1439 305.0001,-124.1439"/>
</g>
<!-- Commontator::Thread -->
<g id="node10" class="node">
<title>Commontator::Thread</title>
<ellipse fill="none" stroke="#000000" cx="479" cy="-68.5" rx="90.1842" ry="18"/>
<text text-anchor="middle" x="479" y="-64.8" font-family="Times,serif" font-size="14.00" fill="#000000">Commontator::Thread</text>
</g>
<!-- Hotel&#45;&gt;Commontator::Thread -->
<g id="edge3" class="edge">
<title>Hotel&#45;&gt;Commontator::Thread</title>
<path fill="none" stroke="#203ff1" d="M382.9028,-201.324C412.0064,-161.0975 442.4829,-118.9733 461.1125,-93.2238"/>
<ellipse fill="none" stroke="#203ff1" cx="380.3801" cy="-204.8109" rx="4" ry="4"/>
<ellipse fill="#203ff1" stroke="#203ff1" cx="463.4689" cy="-89.9669" rx="4" ry="4"/>
<text text-anchor="middle" x="430" y="-158.8" font-family="Times,serif" font-size="14.00" fill="#000000">thread</text>
</g>
<!-- ApplicationRecord -->
<g id="node7" class="node">
<title>ApplicationRecord</title>
<ellipse fill="none" stroke="#000000" cx="1061" cy="-309" rx="77.1866" ry="18"/>
<text text-anchor="middle" x="1061" y="-305.3" font-family="Times,serif" font-size="14.00" fill="#000000">ApplicationRecord</text>
</g>
</g>
</svg>
